%YAML 1.1
%TAG !u! tag:unity3d.com,2011:
--- !u!1045 &1
EditorBuildSettings:
  m_ObjectHideFlags: 0
  serializedVersion: 2
  m_Scenes:
  - enabled: 1
    path: Assets/Scenes/MainMenu.unity
    guid: 7e48e1a21902dfc498869e1598fa4ce6
  - enabled: 1
    path: Assets/Scenes/Game.unity
    guid: 2cda990e2423bbf4892e6590ba056729
  - enabled: 1
    path: Assets/Scenes/LoseScreen.unity
    guid: 82639188509d2c749a303b62746f3638
  - enabled: 1
    path: Assets/Scenes/WinScreen.unity
    guid: b4f8ddc254577cb47bb05ff6debd176d
  m_configObjects: {}
